id,ers1,ers2,ers3,ers4,ers5,ers6,ers7,ers8,ers9,ers10,ers11,ers12,ers13,ers14
1,3,4,4,2,2,2,3,1,4,4,4,1,3,3
2,1,3,3,3,1,3,2,1,1,2,3,4,3,4
3,4,4,4,4,2,1,1,2,1,2,1,1,1,1
4,3,4,2,4,4,4,1,2,4,4,4,3,4,2
5,3,3,2,2,4,1,4,1,1,4,3,2,1,1
6,1,3,4,4,4,3,4,3,3,3,4,1,1,1
7,4,2,2,3,4,2,3,4,1,3,4,4,1,1
8,1,2,1,2,1,2,4,4,2,2,3,1,1,1
9,3,1,2,1,1,2,2,4,2,4,2,1,2,3
10,2,4,4,2,1,4,3,2,3,4,3,2,2,1
