id,hit6_1,hit6_2,hit6_3,hit6_4,hit6_5,hit6_6
1,13,10,11,10,8,6
2,10,11,13,6,6,13
3,13,11,8,6,11,10
4,11,8,10,13,10,11
5,10,13,6,6,10,11
6,11,11,10,11,13,13
7,10,13,8,6,6,11
8,10,6,6,10,11,11
9,8,8,10,6,8,8
10,11,10,13,6,13,13
