id,pss1,pss2,pss3,pss4,pss5,pss6,pss7,pss8,pss9,pss10
1,1,3,3,2,4,2,1,1,1,3
2,0,4,2,3,3,1,1,3,3,2
3,0,2,2,4,3,4,2,0,1,0
4,3,0,4,0,0,2,4,3,4,4
5,4,3,4,1,2,4,4,1,4,0
6,4,4,2,3,3,0,4,2,0,2
7,0,0,4,0,3,3,3,0,1,3
8,1,2,1,4,1,3,0,2,2,1
9,3,1,1,4,3,4,3,1,4,3
10,4,0,3,4,0,0,1,1,0,0
